<svg xmlns="http://www.w3.org/2000/svg" viewBox="2233 4733 994 555">
    <defs>
        <style>
            .cls-1 {
            fill: #efefef;
            }

            .cls-2 {
            fill: #fff;
            }
        </style>
    </defs>
    <g id="Group_272" data-name="Group 272" transform="translate(1770 2694)">
        <rect id="Rectangle_163" data-name="Rectangle 163" class="cls-1" width="994" height="555" rx="0"
              transform="translate(463 2039)"/>
        <path id="e005" class="cls-2"
              d="M43.125,19.219a6.873,6.873,0,0,0,2.031,4.922,6.8,6.8,0,0,0,9.844,0A6.979,6.979,0,0,0,55,14.3a6.8,6.8,0,0,0-9.844,0A6.873,6.873,0,0,0,43.125,19.219ZM65,60h5V30L50,45,25,25,10,40V60H65ZM75,0H5A4.805,4.805,0,0,0,1.484,1.484,4.805,4.805,0,0,0,0,5V65a4.805,4.805,0,0,0,1.484,3.516A4.805,4.805,0,0,0,5,70H75a5.07,5.07,0,0,0,5-5V5a4.805,4.805,0,0,0-1.484-3.516A4.805,4.805,0,0,0,75,0Zm0,65H5V5H75Zm5,0"
              transform="translate(920 2276)"/>
    </g>
</svg>
